%YAML 1.1
%TAG !u! tag:unity3d.com,2011:
--- !u!114 &11400000
MonoBehaviour:
  m_ObjectHideFlags: 0
  m_CorrespondingSourceObject: {fileID: 0}
  m_PrefabInstance: {fileID: 0}
  m_PrefabAsset: {fileID: 0}
  m_GameObject: {fileID: 0}
  m_Enabled: 1
  m_EditorHideFlags: 0
  m_Script: {fileID: 11500000, guid: 300132cde56d53ae6b05380c0deb4395, type: 3}
  m_Name: Shimmer Testnet
  m_EditorClassIdentifier: 
  node: https://api.testnet.shimmer.network
  cointype: 4219
  faucet: https://faucet.testnet.shimmer.network/api/enqueue
