<?xml version="1.0" encoding="UTF-8" standalone="no"?>
<!DOCTYPE svg PUBLIC "-//W3C//DTD SVG 1.1//EN"
 "https://www.w3.org/Graphics/SVG/1.1/DTD/svg11.dtd">
<svg version="1.1" width="16" height="24" viewBox="0 0 32 32" xmlns="http://www.w3.org/2000/svg" xmlns:xlink="http://www.w3.org/1999/xlink" xml:space="preserve">
<g style="fill:#124CB7;">
<path
   d="M1,5.998l0,16.002c-0,1.326 0.527,2.598 1.464,3.536c0.938,0.937 2.21,1.464 3.536,1.464c5.322,0 14.678,-0 20,0c1.326,0 2.598,-0.527 3.536,-1.464c0.937,-0.938 1.464,-2.21 1.464,-3.536c0,-3.486 0,-8.514 0,-12c0,-1.326 -0.527,-2.598 -1.464,-3.536c-0.938,-0.937 -2.21,-1.464 -3.536,-1.464c-0,0 -10.586,0 -10.586,0c0,-0 -3.707,-3.707 -3.707,-3.707c-0.187,-0.188 -0.442,-0.293 -0.707,-0.293l-5.002,0c-2.76,0 -4.998,2.238 -4.998,4.998Zm28,14.415l-3.456,-5.925c-0.538,-0.921 -1.524,-1.488 -2.591,-1.488c-0,0 -12.905,0 -12.906,0c-1.067,0 -2.053,0.567 -2.591,1.488l-4.453,7.635c0.03,0.751 0.342,1.465 0.876,1.998c0.562,0.563 1.325,0.879 2.121,0.879l20,0c0.796,0 1.559,-0.316 2.121,-0.879c0.563,-0.562 0.879,-1.325 0.879,-2.121l0,-1.587Zm0,-3.969l0,-6.444c0,-0.796 -0.316,-1.559 -0.879,-2.121c-0.562,-0.563 -1.325,-0.879 -2.121,-0.879c-7.738,0 -11,0 -11,0c-0.265,0 -0.52,-0.105 -0.707,-0.293c-0,0 -3.707,-3.707 -3.707,-3.707c-0,0 -4.588,0 -4.588,0c-1.656,0 -2.998,1.342 -2.998,2.998l0,12.16l2.729,-4.677c0.896,-1.536 2.54,-2.481 4.318,-2.481c3.354,0 9.552,0 12.906,0c1.778,0 3.422,0.945 4.318,2.481l1.729,2.963Z"
   id="path2" />
</g>
<g style="fill:#C4D6F9;stroke-width:0;">
<path
   d="M 5.3879408,24.913408 C 4.1598821,24.650818 3.1571088,23.558656 3.053503,22.370876 L 3.0312746,22.116041 5.2606813,18.293515 C 6.486855,16.191126 7.5598351,14.372696 7.6450818,14.25256 8.0043056,13.746312 8.5423079,13.363007 9.2104664,13.137285 l 0.2548351,-0.08609 6.9294785,-0.0097 c 6.805096,-0.0095 6.934944,-0.0084 7.234011,0.06267 0.695577,0.165199 1.290483,0.557253 1.714887,1.130141 0.08158,0.110125 0.938747,1.556711 1.90481,3.214634 l 1.756479,3.014406 -0.0186,0.971942 c -0.01387,0.724723 -0.03365,1.032131 -0.07778,1.208575 -0.242792,0.970733 -0.88732,1.735415 -1.772382,2.102793 -0.58835,0.244217 0.247209,0.227436 -11.161974,0.224159 -9.0281537,-0.0026 -10.3636023,-0.0098 -10.5862902,-0.05746 z"
   id="path199" /><path
   d="M 3.0126385,11.849829 3.0235061,5.5881684 3.1020974,5.2969283 C 3.3478146,4.3863605 3.93576,3.6757372 4.756668,3.2971229 5.3293315,3.0330025 5.1813272,3.0450949 8.0130385,3.0310668 l 2.5522875,-0.012644 1.918693,1.9107086 c 1.404146,1.3983023 1.964459,1.9332518 2.089351,1.9947704 l 0.170657,0.084062 5.897611,0.019367 c 5.553257,0.018236 5.910365,0.023213 6.116041,0.085231 1.102257,0.3323708 1.857042,1.1184422 2.154229,2.2435244 0.05645,0.2137228 0.06373,0.5643981 0.07519,3.6220748 0.0076,2.032169 -5.42e-4,3.370979 -0.02041,3.349261 -0.0182,-0.0199 -0.414296,-0.691472 -0.880217,-1.492382 -0.46592,-0.80091 -0.93093,-1.577954 -1.033354,-1.726764 -0.735716,-1.0689 -1.983568,-1.844244 -3.315972,-2.060353 -0.280375,-0.04548 -1.345158,-0.05334 -7.238708,-0.05347 -4.713933,-1.09e-4 -6.9931825,0.01221 -7.1717862,0.03874 -1.3002273,0.193134 -2.4770512,0.889916 -3.283628,1.944192 -0.1076466,0.140705 -0.8359664,1.353438 -1.6184885,2.694963 L 3.0017709,18.11149 Z"
   id="path201" />
</g>
</svg>
